EESchema Schematic File Version 4
EELAYER 30 0
EELAYER END
$Descr USLetter 11000 8500
encoding utf-8
Sheet 1 1
Title "Password Typer"
Date "2021-03-21"
Rev "0.1"
Comp "Scott Alfter"
Comment1 ""
Comment2 ""
Comment3 ""
Comment4 ""
$EndDescr
$Comp
L MCU_Microchip_ATmega:ATmega32U4-MU U1
U 1 1 605524A8
P 5400 3800
F 0 "U1" H 4950 5550 50  0000 C CNN
F 1 "ATmega32U4-MU" H 5800 2050 50  0000 C CNN
F 2 "Package_DFN_QFN:QFN-44-1EP_7x7mm_P0.5mm_EP5.2x5.2mm" H 5400 3800 50  0001 C CIN
F 3 "http://ww1.microchip.com/downloads/en/DeviceDoc/Atmel-7766-8-bit-AVR-ATmega16U4-32U4_Datasheet.pdf" H 5400 3800 50  0001 C CNN
F 4 "Microchip" H 5400 3800 50  0001 C CNN "LCSC_Mfr"
F 5 "ATMEGA32U4-MU" H 5400 3800 50  0001 C CNN "LCSC_Mfr_PN"
F 6 "C112161" H 5400 3800 50  0001 C CNN "LCSC_PN"
	1    5400 3800
	1    0    0    -1  
$EndComp
$Comp
L Device:R_US R1
U 1 1 605E86B3
P 3050 4850
F 0 "R1" V 2845 4850 50  0000 C CNN
F 1 "22" V 2936 4850 50  0000 C CNN
F 2 "Resistor_SMD:R_0603_1608Metric" V 3090 4840 50  0001 C CNN
F 3 "~" H 3050 4850 50  0001 C CNN
F 4 "Yageo" H 3050 4850 50  0001 C CNN "LCSC_Mfr"
F 5 "YC164-JR-0722RL" H 3050 4850 50  0001 C CNN "LCSC_Mfr_PN"
F 6 "C107373" H 3050 4850 50  0001 C CNN "LCSC_PN"
	1    3050 4850
	0    1    1    0   
$EndComp
$Comp
L Device:R_US R2
U 1 1 605E8E91
P 3550 4950
F 0 "R2" V 3345 4950 50  0000 C CNN
F 1 "22" V 3436 4950 50  0000 C CNN
F 2 "Resistor_SMD:R_0603_1608Metric" V 3590 4940 50  0001 C CNN
F 3 "~" H 3550 4950 50  0001 C CNN
F 4 "Yageo" H 3550 4950 50  0001 C CNN "LCSC_Mfr"
F 5 "YC164-JR-0722RL" H 3550 4950 50  0001 C CNN "LCSC_Mfr_PN"
F 6 "C107373" H 3550 4950 50  0001 C CNN "LCSC_PN"
	1    3550 4950
	0    1    1    0   
$EndComp
Wire Wire Line
	2750 4850 2900 4850
Wire Wire Line
	3400 4950 2750 4950
$Comp
L power:GND #PWR01
U 1 1 605EA01D
P 2450 5250
F 0 "#PWR01" H 2450 5000 50  0001 C CNN
F 1 "GND" H 2455 5077 50  0000 C CNN
F 2 "" H 2450 5250 50  0001 C CNN
F 3 "" H 2450 5250 50  0001 C CNN
	1    2450 5250
	1    0    0    -1  
$EndComp
$Comp
L power:VCC #PWR02
U 1 1 605EA5C7
P 2750 4650
F 0 "#PWR02" H 2750 4500 50  0001 C CNN
F 1 "VCC" H 2765 4823 50  0000 C CNN
F 2 "" H 2750 4650 50  0001 C CNN
F 3 "" H 2750 4650 50  0001 C CNN
	1    2750 4650
	1    0    0    -1  
$EndComp
Wire Wire Line
	5300 2000 5300 1950
Wire Wire Line
	4750 3100 4800 3100
Wire Wire Line
	5400 1850 5400 1950
$Comp
L power:VCC #PWR09
U 1 1 605EB25F
P 5400 1850
F 0 "#PWR09" H 5400 1700 50  0001 C CNN
F 1 "VCC" H 5415 2023 50  0000 C CNN
F 2 "" H 5400 1850 50  0001 C CNN
F 3 "" H 5400 1850 50  0001 C CNN
	1    5400 1850
	1    0    0    -1  
$EndComp
$Comp
L Device:C C5
U 1 1 605EB9EE
P 4700 3750
F 0 "C5" H 4586 3704 50  0000 R CNN
F 1 "1" H 4586 3795 50  0000 R CNN
F 2 "Capacitor_SMD:C_0603_1608Metric" H 4738 3600 50  0001 C CNN
F 3 "~" H 4700 3750 50  0001 C CNN
F 4 "Yageo" H 4700 3750 50  0001 C CNN "LCSC_Mfr"
F 5 "CC0603KRX7R8BB105" H 4700 3750 50  0001 C CNN "LCSC_Mfr_PN"
F 6 "C106858" H 4700 3750 50  0001 C CNN "LCSC_PN"
	1    4700 3750
	1    0    0    1   
$EndComp
Wire Wire Line
	4800 3600 4700 3600
$Comp
L power:GND #PWR08
U 1 1 605EC49C
P 4700 3900
F 0 "#PWR08" H 4700 3650 50  0001 C CNN
F 1 "GND" H 4705 3727 50  0000 C CNN
F 2 "" H 4700 3900 50  0001 C CNN
F 3 "" H 4700 3900 50  0001 C CNN
	1    4700 3900
	1    0    0    -1  
$EndComp
$Comp
L power:GND #PWR010
U 1 1 605ECBAD
P 5400 5700
F 0 "#PWR010" H 5400 5450 50  0001 C CNN
F 1 "GND" H 5405 5527 50  0000 C CNN
F 2 "" H 5400 5700 50  0001 C CNN
F 3 "" H 5400 5700 50  0001 C CNN
	1    5400 5700
	1    0    0    -1  
$EndComp
Wire Wire Line
	5400 5700 5400 5650
Wire Wire Line
	5400 5650 5300 5650
Wire Wire Line
	5300 5650 5300 5600
Connection ~ 5400 5650
Wire Wire Line
	5400 5650 5400 5600
$Comp
L Device:Crystal_GND24 Y1
U 1 1 605EDEA5
P 2700 2600
F 0 "Y1" V 2550 2650 50  0000 L CNN
F 1 "16MHz" V 2850 2600 50  0000 L CNN
F 2 "Crystal:Crystal_SMD_3225-4Pin_3.2x2.5mm" H 2700 2600 50  0001 C CNN
F 3 "~" H 2700 2600 50  0001 C CNN
F 4 "XTY" H 2700 2600 50  0001 C CNN "LCSC_Mfr"
F 5 "7325-1600A1010-00" H 2700 2600 50  0001 C CNN "LCSC_Mfr_PN"
F 6 "C389840" H 2700 2600 50  0001 C CNN "LCSC_PN"
	1    2700 2600
	0    1    1    0   
$EndComp
$Comp
L Device:C C2
U 1 1 605EE4A3
P 2300 2350
F 0 "C2" V 2552 2350 50  0000 C CNN
F 1 "22p" V 2461 2350 50  0000 C CNN
F 2 "Capacitor_SMD:C_0603_1608Metric" H 2338 2200 50  0001 C CNN
F 3 "~" H 2300 2350 50  0001 C CNN
F 4 "Yageo" H 2300 2350 50  0001 C CNN "LCSC_Mfr"
F 5 "CC0603JRNPO9BN220" H 2300 2350 50  0001 C CNN "LCSC_Mfr_PN"
F 6 "C105620" H 2300 2350 50  0001 C CNN "LCSC_PN"
	1    2300 2350
	0    1    -1   0   
$EndComp
$Comp
L Device:C C3
U 1 1 605EEFF5
P 2300 2850
F 0 "C3" V 2552 2850 50  0000 C CNN
F 1 "22p" V 2461 2850 50  0000 C CNN
F 2 "Capacitor_SMD:C_0603_1608Metric" H 2338 2700 50  0001 C CNN
F 3 "~" H 2300 2850 50  0001 C CNN
F 4 "Yageo" H 2300 2850 50  0001 C CNN "LCSC_Mfr"
F 5 "CC0603JRNPO9BN220" H 2300 2850 50  0001 C CNN "LCSC_Mfr_PN"
F 6 "C105620" H 2300 2850 50  0001 C CNN "LCSC_PN"
	1    2300 2850
	0    1    -1   0   
$EndComp
$Comp
L Device:C C4
U 1 1 605FA27A
P 4400 3050
F 0 "C4" H 4550 3150 50  0000 C CNN
F 1 "0.1" H 4561 3050 50  0000 C CNN
F 2 "Capacitor_SMD:C_0603_1608Metric" H 4438 2900 50  0001 C CNN
F 3 "~" H 4400 3050 50  0001 C CNN
F 4 "Yageo" H 4400 3050 50  0001 C CNN "LCSC_Mfr"
F 5 "CC0603KRX7R8BB104" H 4400 3050 50  0001 C CNN "LCSC_Mfr_PN"
F 6 "C92490" H 4400 3050 50  0001 C CNN "LCSC_PN"
	1    4400 3050
	-1   0    0    -1  
$EndComp
$Comp
L power:GND #PWR06
U 1 1 605FB04D
P 4400 3200
F 0 "#PWR06" H 4400 2950 50  0001 C CNN
F 1 "GND" H 4405 3027 50  0000 C CNN
F 2 "" H 4400 3200 50  0001 C CNN
F 3 "" H 4400 3200 50  0001 C CNN
	1    4400 3200
	1    0    0    -1  
$EndComp
$Comp
L Device:C C1
U 1 1 605FB4F8
P 4750 5200
F 0 "C1" H 4636 5154 50  0000 R CNN
F 1 "0.1" H 4636 5245 50  0000 R CNN
F 2 "Capacitor_SMD:C_0603_1608Metric" H 4788 5050 50  0001 C CNN
F 3 "~" H 4750 5200 50  0001 C CNN
F 4 "Yageo" H 4750 5200 50  0001 C CNN "LCSC_Mfr"
F 5 "CC0603KRX7R8BB104" H 4750 5200 50  0001 C CNN "LCSC_Mfr_PN"
F 6 "C92490" H 4750 5200 50  0001 C CNN "LCSC_PN"
	1    4750 5200
	1    0    0    1   
$EndComp
$Comp
L power:VCC #PWR03
U 1 1 605FBC4D
P 4750 5050
F 0 "#PWR03" H 4750 4900 50  0001 C CNN
F 1 "VCC" H 4765 5223 50  0000 C CNN
F 2 "" H 4750 5050 50  0001 C CNN
F 3 "" H 4750 5050 50  0001 C CNN
	1    4750 5050
	1    0    0    -1  
$EndComp
$Comp
L power:GND #PWR04
U 1 1 605FC12D
P 4750 5350
F 0 "#PWR04" H 4750 5100 50  0001 C CNN
F 1 "GND" H 4755 5177 50  0000 C CNN
F 2 "" H 4750 5350 50  0001 C CNN
F 3 "" H 4750 5350 50  0001 C CNN
	1    4750 5350
	1    0    0    -1  
$EndComp
Wire Wire Line
	5500 1950 5500 2000
$Comp
L Device:R_US R3
U 1 1 606031FF
P 4750 1700
F 0 "R3" H 4682 1654 50  0000 R CNN
F 1 "10k" H 4682 1745 50  0000 R CNN
F 2 "Resistor_SMD:R_0603_1608Metric" V 4790 1690 50  0001 C CNN
F 3 "~" H 4750 1700 50  0001 C CNN
F 4 "Yageo" H 4750 1700 50  0001 C CNN "LCSC_Mfr"
F 5 "YC164-JR-0710KL" H 4750 1700 50  0001 C CNN "LCSC_Mfr_PN"
F 6 "C107374" H 4750 1700 50  0001 C CNN "LCSC_PN"
	1    4750 1700
	-1   0    0    1   
$EndComp
$Comp
L power:VCC #PWR07
U 1 1 6060466F
P 4750 1550
F 0 "#PWR07" H 4750 1400 50  0001 C CNN
F 1 "VCC" H 4765 1723 50  0000 C CNN
F 2 "" H 4750 1550 50  0001 C CNN
F 3 "" H 4750 1550 50  0001 C CNN
	1    4750 1550
	1    0    0    -1  
$EndComp
Wire Wire Line
	4750 2300 4800 2300
$Comp
L power:GND #PWR013
U 1 1 606059CB
P 7950 2550
F 0 "#PWR013" H 7950 2300 50  0001 C CNN
F 1 "GND" H 7955 2377 50  0000 C CNN
F 2 "" H 7950 2550 50  0001 C CNN
F 3 "" H 7950 2550 50  0001 C CNN
	1    7950 2550
	1    0    0    -1  
$EndComp
$Comp
L power:GND #PWR011
U 1 1 60605E90
P 6150 4400
F 0 "#PWR011" H 6150 4150 50  0001 C CNN
F 1 "GND" H 6155 4227 50  0000 C CNN
F 2 "" H 6150 4400 50  0001 C CNN
F 3 "" H 6150 4400 50  0001 C CNN
	1    6150 4400
	1    0    0    -1  
$EndComp
Wire Wire Line
	6000 4400 6150 4400
$Comp
L Switch:SW_Push SW1
U 1 1 60606F6C
P 7550 4150
F 0 "SW1" H 7550 4435 50  0000 C CNN
F 1 "1" H 7550 4344 50  0000 C CNN
F 2 "switches:Keystone-Dome-8mm" H 7550 4350 50  0001 C CNN
F 3 "~" H 7550 4350 50  0001 C CNN
F 4 "" H 7550 4150 50  0001 C CNN "LCSC_Mfr"
F 5 "" H 7550 4150 50  0001 C CNN "LCSC_Mfr_PN"
F 6 "" H 7550 4150 50  0001 C CNN "LCSC_PN"
F 7 "Keystone" H 7550 4150 50  0001 C CNN "DK_Mfr"
F 8 "5134" H 7550 4150 50  0001 C CNN "DK_Mfr_PN"
F 9 "36-5134-ND" H 7550 4150 50  0001 C CNN "DK_PN"
	1    7550 4150
	1    0    0    -1  
$EndComp
$Comp
L Switch:SW_Push SW2
U 1 1 60607BCB
P 8250 4150
F 0 "SW2" H 8250 4435 50  0000 C CNN
F 1 "2" H 8250 4344 50  0000 C CNN
F 2 "switches:Keystone-Dome-8mm" H 8250 4350 50  0001 C CNN
F 3 "~" H 8250 4350 50  0001 C CNN
F 4 "Keystone" H 8250 4150 50  0001 C CNN "DK_Mfr"
F 5 "5134" H 8250 4150 50  0001 C CNN "DK_Mfr_PN"
F 6 "" H 8250 4150 50  0001 C CNN "LCSC_Mfr"
F 7 "" H 8250 4150 50  0001 C CNN "LCSC_Mfr_PN"
F 8 "" H 8250 4150 50  0001 C CNN "LCSC_PN"
F 9 "36-5134-ND" H 8250 4150 50  0001 C CNN "DK_PN"
	1    8250 4150
	1    0    0    -1  
$EndComp
$Comp
L Switch:SW_Push SW3
U 1 1 6060806C
P 7550 4550
F 0 "SW3" H 7550 4835 50  0000 C CNN
F 1 "3" H 7550 4744 50  0000 C CNN
F 2 "switches:Keystone-Dome-8mm" H 7550 4750 50  0001 C CNN
F 3 "~" H 7550 4750 50  0001 C CNN
F 4 "Keystone" H 7550 4550 50  0001 C CNN "DK_Mfr"
F 5 "5134" H 7550 4550 50  0001 C CNN "DK_Mfr_PN"
F 6 "" H 7550 4550 50  0001 C CNN "LCSC_Mfr"
F 7 "" H 7550 4550 50  0001 C CNN "LCSC_Mfr_PN"
F 8 "" H 7550 4550 50  0001 C CNN "LCSC_PN"
F 9 "36-5134-ND" H 7550 4550 50  0001 C CNN "DK_PN"
	1    7550 4550
	1    0    0    -1  
$EndComp
$Comp
L Switch:SW_Push SW4
U 1 1 60608627
P 8250 4550
F 0 "SW4" H 8250 4835 50  0000 C CNN
F 1 "4" H 8250 4744 50  0000 C CNN
F 2 "switches:Keystone-Dome-8mm" H 8250 4750 50  0001 C CNN
F 3 "~" H 8250 4750 50  0001 C CNN
F 4 "Keystone" H 8250 4550 50  0001 C CNN "DK_Mfr"
F 5 "5134" H 8250 4550 50  0001 C CNN "DK_Mfr_PN"
F 6 "" H 8250 4550 50  0001 C CNN "LCSC_Mfr"
F 7 "" H 8250 4550 50  0001 C CNN "LCSC_Mfr_PN"
F 8 "" H 8250 4550 50  0001 C CNN "LCSC_PN"
F 9 "36-5134-ND" H 8250 4550 50  0001 C CNN "DK_PN"
	1    8250 4550
	1    0    0    -1  
$EndComp
Wire Wire Line
	7750 4150 7850 4150
Wire Wire Line
	7850 4150 7850 4550
Wire Wire Line
	7750 4550 7850 4550
Connection ~ 7850 4550
Wire Wire Line
	7850 4550 7850 4800
Wire Wire Line
	8450 4150 8500 4150
Wire Wire Line
	8500 4150 8500 4550
Wire Wire Line
	8500 4550 8450 4550
Wire Wire Line
	8500 4550 8500 4800
Wire Wire Line
	8500 4800 7850 4800
Connection ~ 8500 4550
Connection ~ 7850 4800
Wire Wire Line
	7850 4800 7850 4850
$Comp
L power:GND #PWR014
U 1 1 6060F7E7
P 7850 4850
F 0 "#PWR014" H 7850 4600 50  0001 C CNN
F 1 "GND" H 7855 4677 50  0000 C CNN
F 2 "" H 7850 4850 50  0001 C CNN
F 3 "" H 7850 4850 50  0001 C CNN
	1    7850 4850
	1    0    0    -1  
$EndComp
$Comp
L Connector:TestPoint TP1
U 1 1 6060FC72
P 7600 2350
F 0 "TP1" V 7600 1950 50  0000 L CNN
F 1 "MISO" V 7650 2250 50  0001 L CNN
F 2 "TestPoint:TestPoint_Pad_D1.5mm" H 7800 2350 50  0001 C CNN
F 3 "~" H 7800 2350 50  0001 C CNN
	1    7600 2350
	0    1    1    0   
$EndComp
$Comp
L Connector:TestPoint TP2
U 1 1 606106E1
P 7600 2450
F 0 "TP2" V 7600 2050 50  0000 L CNN
F 1 "SCK" V 7650 2350 50  0001 L CNN
F 2 "TestPoint:TestPoint_Pad_D1.5mm" H 7800 2450 50  0001 C CNN
F 3 "~" H 7800 2450 50  0001 C CNN
	1    7600 2450
	0    1    1    0   
$EndComp
$Comp
L Connector:TestPoint TP3
U 1 1 6061095B
P 7600 2550
F 0 "TP3" V 7600 2150 50  0000 L CNN
F 1 "RESET" V 7650 2400 50  0001 L CNN
F 2 "TestPoint:TestPoint_Pad_D1.5mm" H 7800 2550 50  0001 C CNN
F 3 "~" H 7800 2550 50  0001 C CNN
	1    7600 2550
	0    1    1    0   
$EndComp
$Comp
L Connector:TestPoint TP6
U 1 1 60610BF1
P 7950 2550
F 0 "TP6" V 7950 2150 50  0000 L CNN
F 1 "GND" V 7900 2500 50  0001 L CNN
F 2 "TestPoint:TestPoint_Pad_D1.5mm" H 8150 2550 50  0001 C CNN
F 3 "~" H 8150 2550 50  0001 C CNN
	1    7950 2550
	0    -1   -1   0   
$EndComp
$Comp
L Connector:TestPoint TP5
U 1 1 60610FA8
P 7950 2450
F 0 "TP5" V 7950 2050 50  0000 L CNN
F 1 "MOSI" V 7900 2350 50  0001 L CNN
F 2 "TestPoint:TestPoint_Pad_D1.5mm" H 8150 2450 50  0001 C CNN
F 3 "~" H 8150 2450 50  0001 C CNN
	1    7950 2450
	0    -1   -1   0   
$EndComp
$Comp
L Connector:TestPoint TP4
U 1 1 60611205
P 7950 2350
F 0 "TP4" V 7950 1950 50  0000 L CNN
F 1 "VCC" V 7900 2300 50  0001 L CNN
F 2 "TestPoint:TestPoint_Pad_D1.5mm" H 8150 2350 50  0001 C CNN
F 3 "~" H 8150 2350 50  0001 C CNN
	1    7950 2350
	0    -1   -1   0   
$EndComp
Wire Wire Line
	5300 1950 5400 1950
Connection ~ 5400 1950
Wire Wire Line
	5400 1950 5400 2000
Wire Wire Line
	5400 1950 5500 1950
$Comp
L power:VCC #PWR012
U 1 1 606209AA
P 7950 2350
F 0 "#PWR012" H 7950 2200 50  0001 C CNN
F 1 "VCC" H 7965 2523 50  0000 C CNN
F 2 "" H 7950 2350 50  0001 C CNN
F 3 "" H 7950 2350 50  0001 C CNN
	1    7950 2350
	1    0    0    -1  
$EndComp
$Comp
L usb:USB_A J1
U 1 1 60595C0E
P 2450 4850
F 0 "J1" H 2507 5317 50  0000 C CNN
F 1 "USB_A" H 2507 5226 50  0000 C CNN
F 2 "usb:USB-A-PCB-Plug" H 2600 4800 50  0001 C CNN
F 3 " ~" H 2600 4800 50  0001 C CNN
	1    2450 4850
	1    0    0    -1  
$EndComp
$Comp
L power:GND #PWR0101
U 1 1 605C6F24
P 2500 3100
F 0 "#PWR0101" H 2500 2850 50  0001 C CNN
F 1 "GND" H 2505 2927 50  0000 C CNN
F 2 "" H 2500 3100 50  0001 C CNN
F 3 "" H 2500 3100 50  0001 C CNN
	1    2500 3100
	1    0    0    -1  
$EndComp
NoConn ~ 6000 2300
NoConn ~ 6000 2700
NoConn ~ 6000 2800
NoConn ~ 6000 2900
NoConn ~ 6000 3000
NoConn ~ 6000 3300
NoConn ~ 6000 3700
NoConn ~ 6000 3800
NoConn ~ 6000 4000
NoConn ~ 6000 4100
NoConn ~ 6000 4200
NoConn ~ 6000 4500
NoConn ~ 6000 4700
NoConn ~ 6000 4800
NoConn ~ 6000 4900
NoConn ~ 6000 5000
NoConn ~ 6000 5100
NoConn ~ 6000 5200
Text GLabel 6000 2600 2    50   UnSpc ~ 0
MISO
Text GLabel 7600 2350 0    50   UnSpc ~ 0
MISO
Text GLabel 6000 2400 2    50   UnSpc ~ 0
SCK
Text GLabel 7600 2450 0    50   UnSpc ~ 0
SCK
Text GLabel 4700 2300 0    50   UnSpc ~ 0
RESET
Text GLabel 7600 2550 0    50   UnSpc ~ 0
RESET
Text GLabel 6000 2500 2    50   UnSpc ~ 0
MOSI
Text GLabel 7950 2450 2    50   UnSpc ~ 0
MOSI
Text GLabel 6000 3600 2    50   UnSpc ~ 0
D2
Text GLabel 7350 4150 0    50   UnSpc ~ 0
D2
Text GLabel 6000 3500 2    50   UnSpc ~ 0
D3
Text GLabel 8050 4150 0    50   UnSpc ~ 0
D3
Text GLabel 6000 3900 2    50   UnSpc ~ 0
D4
Text GLabel 7350 4550 0    50   UnSpc ~ 0
D4
Text GLabel 6000 3200 2    50   UnSpc ~ 0
D5
Text GLabel 8050 4550 0    50   UnSpc ~ 0
D5
Text GLabel 4800 3300 0    50   BiDi ~ 0
D+
Text GLabel 4800 3400 0    50   BiDi ~ 0
D-
Text GLabel 3200 4850 2    50   BiDi ~ 0
D+
Text GLabel 3700 4950 2    50   BiDi ~ 0
D-
Text Notes 7650 2100 0    50   ~ 10
AVR ISP
Text Notes 7700 3800 0    50   ~ 10
Buttons
Text Notes 2950 4450 0    50   ~ 10
USB
Wire Wire Line
	4400 2900 4800 2900
Wire Wire Line
	3250 2350 2700 2350
Wire Wire Line
	2700 2350 2700 2450
Wire Wire Line
	2700 2750 2700 2850
Wire Wire Line
	2700 2850 3250 2850
Wire Wire Line
	2450 2350 2700 2350
Connection ~ 2700 2350
Wire Wire Line
	2450 2850 2700 2850
Connection ~ 2700 2850
Wire Wire Line
	2150 2350 2150 2850
Wire Wire Line
	2500 3100 2500 3050
Wire Wire Line
	2150 2850 2150 3050
Wire Wire Line
	2150 3050 2500 3050
Connection ~ 2150 2850
Connection ~ 2500 3050
Wire Wire Line
	2500 3050 2500 3000
Wire Wire Line
	2500 3000 2950 3000
Wire Wire Line
	2950 3000 2950 2600
Wire Wire Line
	2950 2600 2900 2600
Connection ~ 2500 3000
Wire Wire Line
	2500 3000 2500 2600
Wire Wire Line
	4750 1850 4750 2300
Wire Wire Line
	4750 2300 4700 2300
Connection ~ 4750 2300
Text GLabel 3250 2350 2    50   UnSpc ~ 0
XTAL1
Text GLabel 3250 2850 2    50   UnSpc ~ 0
XTAL2
Text GLabel 4800 2500 0    50   UnSpc ~ 0
XTAL1
Text GLabel 4800 2700 0    50   UnSpc ~ 0
XTAL2
$Comp
L power:VCC #PWR0102
U 1 1 60632C77
P 4750 3100
F 0 "#PWR0102" H 4750 2950 50  0001 C CNN
F 1 "VCC" H 4765 3273 50  0000 C CNN
F 2 "" H 4750 3100 50  0001 C CNN
F 3 "" H 4750 3100 50  0001 C CNN
	1    4750 3100
	1    0    0    -1  
$EndComp
Text Notes 2650 2200 0    50   ~ 10
Clock
$Comp
L Mechanical:Fiducial FID1
U 1 1 605D0325
P 1050 7100
F 0 "FID1" H 1135 7146 50  0000 L CNN
F 1 "Fiducial" H 1135 7055 50  0000 L CNN
F 2 "Fiducial:Fiducial_0.5mm_Mask1.5mm" H 1050 7100 50  0001 C CNN
F 3 "~" H 1050 7100 50  0001 C CNN
	1    1050 7100
	1    0    0    -1  
$EndComp
$Comp
L Mechanical:Fiducial FID2
U 1 1 605D116E
P 1050 7300
F 0 "FID2" H 1135 7346 50  0000 L CNN
F 1 "Fiducial" H 1135 7255 50  0000 L CNN
F 2 "Fiducial:Fiducial_0.5mm_Mask1.5mm" H 1050 7300 50  0001 C CNN
F 3 "~" H 1050 7300 50  0001 C CNN
	1    1050 7300
	1    0    0    -1  
$EndComp
$Comp
L Mechanical:Fiducial FID3
U 1 1 605D1564
P 1050 7500
F 0 "FID3" H 1135 7546 50  0000 L CNN
F 1 "Fiducial" H 1135 7455 50  0000 L CNN
F 2 "Fiducial:Fiducial_0.5mm_Mask1.5mm" H 1050 7500 50  0001 C CNN
F 3 "~" H 1050 7500 50  0001 C CNN
	1    1050 7500
	1    0    0    -1  
$EndComp
$EndSCHEMATC
