%TF.GenerationSoftware,KiCad,Pcbnew,(5.1.9)-1*%
%TF.CreationDate,2021-03-25T13:49:59-07:00*%
%TF.ProjectId,key_dongle,6b65795f-646f-46e6-976c-652e6b696361,0.1*%
%TF.SameCoordinates,Original*%
%TF.FileFunction,Copper,L2,Bot*%
%TF.FilePolarity,Positive*%
%FSLAX46Y46*%
G04 Gerber Fmt 4.6, Leading zero omitted, Abs format (unit mm)*
G04 Created by KiCad (PCBNEW (5.1.9)-1) date 2021-03-25 13:49:59*
%MOMM*%
%LPD*%
G01*
G04 APERTURE LIST*
%TA.AperFunction,EtchedComponent*%
%ADD10C,0.381000*%
%TD*%
%TA.AperFunction,SMDPad,CuDef*%
%ADD11C,1.500000*%
%TD*%
%TA.AperFunction,ViaPad*%
%ADD12C,0.800000*%
%TD*%
%TA.AperFunction,Conductor*%
%ADD13C,0.250000*%
%TD*%
%TA.AperFunction,Conductor*%
%ADD14C,0.254000*%
%TD*%
%TA.AperFunction,Conductor*%
%ADD15C,0.100000*%
%TD*%
G04 APERTURE END LIST*
D10*
%TO.C,REF\u002A\u002A*%
X169580560Y-104279700D02*
X170180000Y-104180640D01*
X169179240Y-104378760D02*
X169580560Y-104279700D01*
X168678860Y-104681020D02*
X169179240Y-104378760D01*
X168181020Y-105178860D02*
X168678860Y-104681020D01*
X167878760Y-105679240D02*
X168181020Y-105178860D01*
X167680640Y-106281220D02*
X167878760Y-105679240D01*
X167680640Y-106880660D02*
X167680640Y-106281220D01*
X167779700Y-107480100D02*
X167680640Y-106880660D01*
X168181020Y-108181140D02*
X167779700Y-107480100D01*
X168678860Y-108678980D02*
X168181020Y-108181140D01*
X169280840Y-108981240D02*
X168678860Y-108678980D01*
X169880280Y-109179360D02*
X169280840Y-108981240D01*
X170680380Y-109179360D02*
X169880280Y-109179360D01*
X171378880Y-108879640D02*
X170680380Y-109179360D01*
X171879260Y-108480860D02*
X171378880Y-108879640D01*
X172481240Y-107779820D02*
X171879260Y-108480860D01*
X172679360Y-106979720D02*
X172481240Y-107779820D01*
X172679360Y-106380280D02*
X172679360Y-106979720D01*
X172580300Y-105879900D02*
X172679360Y-106380280D01*
X172379640Y-105481120D02*
X172580300Y-105879900D01*
X171879260Y-104879140D02*
X172379640Y-105481120D01*
X171378880Y-104480360D02*
X171879260Y-104879140D01*
X170881040Y-104279700D02*
X171378880Y-104480360D01*
X170279060Y-104180640D02*
X170881040Y-104279700D01*
X170180000Y-104180640D02*
X170279060Y-104180640D01*
X170495666Y-104980740D02*
G75*
G03*
X170495666Y-104980740I-315666J0D01*
G01*
X170980100Y-106880660D02*
X170980100Y-105679240D01*
X169478960Y-106880660D02*
X170980100Y-106880660D01*
X169478960Y-105679240D02*
X169478960Y-106880660D01*
X170980100Y-105679240D02*
X169478960Y-105679240D01*
X170479720Y-108480860D02*
X169979340Y-108480860D01*
X170479720Y-106979720D02*
X170479720Y-108480860D01*
X169880280Y-108480860D02*
X169880280Y-106880660D01*
X170080940Y-108480860D02*
X169880280Y-108480860D01*
X170180000Y-106979720D02*
X170180000Y-108280200D01*
X170980100Y-106580940D02*
X169679620Y-106580940D01*
X169679620Y-106281220D02*
X170881040Y-106281220D01*
X170881040Y-105978960D02*
X169580560Y-105978960D01*
X170180000Y-104780080D02*
X170180000Y-105178860D01*
X175295560Y-104279700D02*
X175895000Y-104180640D01*
X174894240Y-104378760D02*
X175295560Y-104279700D01*
X174393860Y-104681020D02*
X174894240Y-104378760D01*
X173896020Y-105178860D02*
X174393860Y-104681020D01*
X173593760Y-105679240D02*
X173896020Y-105178860D01*
X173395640Y-106281220D02*
X173593760Y-105679240D01*
X173395640Y-106880660D02*
X173395640Y-106281220D01*
X173494700Y-107480100D02*
X173395640Y-106880660D01*
X173896020Y-108181140D02*
X173494700Y-107480100D01*
X174393860Y-108678980D02*
X173896020Y-108181140D01*
X174995840Y-108981240D02*
X174393860Y-108678980D01*
X175595280Y-109179360D02*
X174995840Y-108981240D01*
X176395380Y-109179360D02*
X175595280Y-109179360D01*
X177093880Y-108879640D02*
X176395380Y-109179360D01*
X177594260Y-108480860D02*
X177093880Y-108879640D01*
X178196240Y-107779820D02*
X177594260Y-108480860D01*
X178394360Y-106979720D02*
X178196240Y-107779820D01*
X178394360Y-106380280D02*
X178394360Y-106979720D01*
X178295300Y-105879900D02*
X178394360Y-106380280D01*
X178094640Y-105481120D02*
X178295300Y-105879900D01*
X177594260Y-104879140D02*
X178094640Y-105481120D01*
X177093880Y-104480360D02*
X177594260Y-104879140D01*
X176596040Y-104279700D02*
X177093880Y-104480360D01*
X175994060Y-104180640D02*
X176596040Y-104279700D01*
X175895000Y-104180640D02*
X175994060Y-104180640D01*
X176395380Y-105178860D02*
X176895760Y-105379520D01*
X175994060Y-105079800D02*
X176395380Y-105178860D01*
X175595280Y-105079800D02*
X175994060Y-105079800D01*
X174995840Y-105379520D02*
X175595280Y-105079800D01*
X174696120Y-105679240D02*
X174995840Y-105379520D01*
X174393860Y-106179620D02*
X174696120Y-105679240D01*
X174294800Y-106680000D02*
X174393860Y-106179620D01*
X174294800Y-107078780D02*
X174294800Y-106680000D01*
X174594520Y-107579160D02*
X174294800Y-107078780D01*
X174995840Y-107980480D02*
X174594520Y-107579160D01*
X175496220Y-108181140D02*
X174995840Y-107980480D01*
X175994060Y-108280200D02*
X175496220Y-108181140D01*
X176494440Y-108181140D02*
X175994060Y-108280200D01*
X176994820Y-107878880D02*
X176494440Y-108181140D01*
%TD*%
D11*
%TO.P,TP6,1*%
%TO.N,GND*%
X147447000Y-109728000D03*
%TD*%
%TO.P,TP5,1*%
%TO.N,MOSI*%
X147447000Y-107188000D03*
%TD*%
%TO.P,TP4,1*%
%TO.N,VCC*%
X147447000Y-104648000D03*
%TD*%
%TO.P,TP3,1*%
%TO.N,RESET*%
X149987000Y-109728000D03*
%TD*%
%TO.P,TP2,1*%
%TO.N,SCK*%
X149987000Y-107188000D03*
%TD*%
%TO.P,TP1,1*%
%TO.N,MISO*%
X149987000Y-104648000D03*
%TD*%
D12*
%TO.N,VCC*%
X143129000Y-107315000D03*
X148463000Y-101854000D03*
X153022666Y-105332806D03*
X145216337Y-111445592D03*
%TO.N,GND*%
X148838193Y-106478952D03*
X160528000Y-110236000D03*
X154051000Y-105156000D03*
%TO.N,RESET*%
X150764987Y-113251979D03*
%TO.N,MISO*%
X148082000Y-112649000D03*
%TO.N,SCK*%
X151765000Y-113284000D03*
%TO.N,MOSI*%
X147138243Y-112318323D03*
%TO.N,D2*%
X161998094Y-107966022D03*
X162174340Y-106516010D03*
%TO.N,D4*%
X163322000Y-105791000D03*
X163435790Y-107351726D03*
%TO.N,D5*%
X164592000Y-107061000D03*
X164592000Y-105537000D03*
%TD*%
D13*
%TO.N,VCC*%
X145796000Y-104648000D02*
X143129000Y-107315000D01*
X147447000Y-104648000D02*
X145796000Y-104648000D01*
X147447000Y-104648000D02*
X147447000Y-102870000D01*
X147447000Y-102870000D02*
X148463000Y-101854000D01*
X149543860Y-101854000D02*
X153022666Y-105332806D01*
X148463000Y-101854000D02*
X149543860Y-101854000D01*
X143129000Y-107315000D02*
X145216337Y-109402337D01*
X145216337Y-109402337D02*
X145216337Y-111445592D01*
%TO.N,GND*%
X148838193Y-108336807D02*
X148838193Y-106478952D01*
X147447000Y-109728000D02*
X148838193Y-108336807D01*
X153747667Y-105459333D02*
X153747667Y-108408667D01*
X155575000Y-110236000D02*
X160528000Y-110236000D01*
X154051000Y-105156000D02*
X153747667Y-105459333D01*
X153747667Y-108408667D02*
X155575000Y-110236000D01*
%TO.N,RESET*%
X149987000Y-109728000D02*
X149987000Y-112473992D01*
X149987000Y-112473992D02*
X150764987Y-113251979D01*
%TO.N,MISO*%
X149987000Y-104648000D02*
X148911999Y-105723001D01*
X148911999Y-105723001D02*
X147320997Y-105723001D01*
X147682001Y-113048999D02*
X148082000Y-112649000D01*
X145921988Y-107122010D02*
X145921988Y-111078241D01*
X147320997Y-105723001D02*
X145921988Y-107122010D01*
X145921988Y-111078241D02*
X145941338Y-111097591D01*
X145941338Y-111097591D02*
X145941338Y-112286338D01*
X146703999Y-113048999D02*
X147682001Y-113048999D01*
X145941338Y-112286338D02*
X146703999Y-113048999D01*
%TO.N,SCK*%
X151765000Y-108966000D02*
X151765000Y-113284000D01*
X149987000Y-107188000D02*
X151765000Y-108966000D01*
%TO.N,MOSI*%
X147447000Y-107188000D02*
X146371999Y-108263001D01*
X146371999Y-110891841D02*
X147138243Y-111658085D01*
X147138243Y-111658085D02*
X147138243Y-112318323D01*
X146371999Y-108263001D02*
X146371999Y-110891841D01*
%TO.N,D2*%
X162174340Y-106516010D02*
X162174340Y-107789776D01*
X162174340Y-107789776D02*
X161998094Y-107966022D01*
%TO.N,D4*%
X163322000Y-105791000D02*
X163322000Y-107237936D01*
X163322000Y-107237936D02*
X163435790Y-107351726D01*
%TO.N,D5*%
X164592000Y-107061000D02*
X164592000Y-105537000D01*
%TD*%
D14*
%TO.N,VCC*%
X189078001Y-97122572D02*
X189078000Y-97122582D01*
X189078001Y-116680581D01*
X189078000Y-117577000D01*
X137439000Y-117577000D01*
X137439000Y-112935419D01*
X137442193Y-112903000D01*
X137429450Y-112773617D01*
X137391710Y-112649207D01*
X137330425Y-112534550D01*
X137247948Y-112434052D01*
X137147450Y-112351575D01*
X137032793Y-112290290D01*
X136908383Y-112252550D01*
X136906000Y-112252315D01*
X136906000Y-107122010D01*
X145158312Y-107122010D01*
X145161988Y-107159333D01*
X145161989Y-111040909D01*
X145158312Y-111078241D01*
X145161989Y-111115574D01*
X145172986Y-111227227D01*
X145181338Y-111254761D01*
X145181339Y-112249006D01*
X145177662Y-112286338D01*
X145192336Y-112435323D01*
X145235792Y-112578584D01*
X145306364Y-112710614D01*
X145344229Y-112756752D01*
X145401338Y-112826339D01*
X145430336Y-112850137D01*
X146140200Y-113560001D01*
X146163998Y-113589000D01*
X146192996Y-113612798D01*
X146279723Y-113683973D01*
X146411752Y-113754545D01*
X146555013Y-113798002D01*
X146703999Y-113812676D01*
X146741332Y-113808999D01*
X147644679Y-113808999D01*
X147682001Y-113812675D01*
X147719323Y-113808999D01*
X147719334Y-113808999D01*
X147830987Y-113798002D01*
X147974248Y-113754545D01*
X148106226Y-113684000D01*
X148183939Y-113684000D01*
X148383898Y-113644226D01*
X148572256Y-113566205D01*
X148741774Y-113452937D01*
X148885937Y-113308774D01*
X148999205Y-113139256D01*
X149077226Y-112950898D01*
X149117000Y-112750939D01*
X149117000Y-112547061D01*
X149077226Y-112347102D01*
X148999205Y-112158744D01*
X148885937Y-111989226D01*
X148741774Y-111845063D01*
X148572256Y-111731795D01*
X148383898Y-111653774D01*
X148183939Y-111614000D01*
X147980061Y-111614000D01*
X147911307Y-111627676D01*
X147897572Y-111613941D01*
X147887246Y-111509099D01*
X147843789Y-111365838D01*
X147773217Y-111233809D01*
X147678244Y-111118084D01*
X147654756Y-111098808D01*
X147850989Y-111059775D01*
X148103043Y-110955371D01*
X148329886Y-110803799D01*
X148522799Y-110610886D01*
X148674371Y-110384043D01*
X148717000Y-110281127D01*
X148759629Y-110384043D01*
X148911201Y-110610886D01*
X149104114Y-110803799D01*
X149227000Y-110885909D01*
X149227001Y-112436660D01*
X149223324Y-112473992D01*
X149227001Y-112511325D01*
X149237998Y-112622978D01*
X149245892Y-112649001D01*
X149281454Y-112766238D01*
X149352026Y-112898268D01*
X149395219Y-112950898D01*
X149447000Y-113013993D01*
X149475998Y-113037791D01*
X149729987Y-113291780D01*
X149729987Y-113353918D01*
X149769761Y-113553877D01*
X149847782Y-113742235D01*
X149961050Y-113911753D01*
X150105213Y-114055916D01*
X150274731Y-114169184D01*
X150463089Y-114247205D01*
X150663048Y-114286979D01*
X150866926Y-114286979D01*
X151066885Y-114247205D01*
X151237698Y-114176452D01*
X151274744Y-114201205D01*
X151463102Y-114279226D01*
X151663061Y-114319000D01*
X151866939Y-114319000D01*
X152066898Y-114279226D01*
X152255256Y-114201205D01*
X152424774Y-114087937D01*
X152568937Y-113943774D01*
X152682205Y-113774256D01*
X152760226Y-113585898D01*
X152800000Y-113385939D01*
X152800000Y-113182061D01*
X152760226Y-112982102D01*
X152682205Y-112793744D01*
X152568937Y-112624226D01*
X152525000Y-112580289D01*
X152525000Y-109003325D01*
X152528676Y-108966000D01*
X152525000Y-108928675D01*
X152525000Y-108928667D01*
X152514003Y-108817014D01*
X152470546Y-108673753D01*
X152399974Y-108541724D01*
X152305001Y-108425999D01*
X152276004Y-108402202D01*
X151343167Y-107469365D01*
X151372000Y-107324411D01*
X151372000Y-107051589D01*
X151318775Y-106784011D01*
X151214371Y-106531957D01*
X151062799Y-106305114D01*
X150869886Y-106112201D01*
X150643043Y-105960629D01*
X150540127Y-105918000D01*
X150643043Y-105875371D01*
X150869886Y-105723799D01*
X151062799Y-105530886D01*
X151110609Y-105459333D01*
X152983991Y-105459333D01*
X152987667Y-105496656D01*
X152987668Y-108371335D01*
X152983991Y-108408667D01*
X152987668Y-108446000D01*
X152998665Y-108557653D01*
X153003509Y-108573621D01*
X153042121Y-108700913D01*
X153112693Y-108832943D01*
X153166064Y-108897975D01*
X153207667Y-108948668D01*
X153236665Y-108972466D01*
X155011201Y-110747003D01*
X155034999Y-110776001D01*
X155063997Y-110799799D01*
X155150723Y-110870974D01*
X155222018Y-110909082D01*
X155282753Y-110941546D01*
X155426014Y-110985003D01*
X155537667Y-110996000D01*
X155537676Y-110996000D01*
X155574999Y-110999676D01*
X155612322Y-110996000D01*
X159824289Y-110996000D01*
X159868226Y-111039937D01*
X160037744Y-111153205D01*
X160226102Y-111231226D01*
X160426061Y-111271000D01*
X160629939Y-111271000D01*
X160829898Y-111231226D01*
X161018256Y-111153205D01*
X161187774Y-111039937D01*
X161331937Y-110895774D01*
X161445205Y-110726256D01*
X161523226Y-110537898D01*
X161563000Y-110337939D01*
X161563000Y-110134061D01*
X161523226Y-109934102D01*
X161445205Y-109745744D01*
X161331937Y-109576226D01*
X161187774Y-109432063D01*
X161018256Y-109318795D01*
X160829898Y-109240774D01*
X160629939Y-109201000D01*
X160426061Y-109201000D01*
X160226102Y-109240774D01*
X160037744Y-109318795D01*
X159868226Y-109432063D01*
X159824289Y-109476000D01*
X155889802Y-109476000D01*
X154507667Y-108093866D01*
X154507667Y-107864083D01*
X160963094Y-107864083D01*
X160963094Y-108067961D01*
X161002868Y-108267920D01*
X161080889Y-108456278D01*
X161194157Y-108625796D01*
X161338320Y-108769959D01*
X161507838Y-108883227D01*
X161696196Y-108961248D01*
X161896155Y-109001022D01*
X162100033Y-109001022D01*
X162299992Y-108961248D01*
X162488350Y-108883227D01*
X162657868Y-108769959D01*
X162802031Y-108625796D01*
X162915299Y-108456278D01*
X162985964Y-108285678D01*
X163133892Y-108346952D01*
X163333851Y-108386726D01*
X163537729Y-108386726D01*
X163737688Y-108346952D01*
X163926046Y-108268931D01*
X164095564Y-108155663D01*
X164222856Y-108028371D01*
X164290102Y-108056226D01*
X164490061Y-108096000D01*
X164693939Y-108096000D01*
X164893898Y-108056226D01*
X165082256Y-107978205D01*
X165251774Y-107864937D01*
X165395937Y-107720774D01*
X165509205Y-107551256D01*
X165587226Y-107362898D01*
X165627000Y-107162939D01*
X165627000Y-106959061D01*
X165606032Y-106853644D01*
X166851586Y-106853644D01*
X166855140Y-106907738D01*
X166855140Y-106921212D01*
X166857799Y-106948212D01*
X166859575Y-106975241D01*
X166861769Y-106988515D01*
X166867084Y-107042485D01*
X166874999Y-107068578D01*
X166956166Y-107559745D01*
X166956910Y-107585349D01*
X166969395Y-107639799D01*
X166971858Y-107654702D01*
X166978452Y-107679296D01*
X166993253Y-107743846D01*
X166999478Y-107757719D01*
X167003415Y-107772405D01*
X167032717Y-107831801D01*
X167043138Y-107855027D01*
X167050640Y-107868132D01*
X167075357Y-107918234D01*
X167090955Y-107938555D01*
X167458636Y-108580834D01*
X167491321Y-108641982D01*
X167524794Y-108682769D01*
X167555369Y-108725769D01*
X167605795Y-108773347D01*
X168045169Y-109212721D01*
X168051300Y-109221408D01*
X168102612Y-109270164D01*
X168123819Y-109291371D01*
X168131977Y-109298066D01*
X168169181Y-109333417D01*
X168194691Y-109349535D01*
X168218017Y-109368679D01*
X168263277Y-109392871D01*
X168272200Y-109398509D01*
X168299003Y-109411967D01*
X168361426Y-109445333D01*
X168371602Y-109448420D01*
X168855585Y-109691433D01*
X168871885Y-109702916D01*
X168928096Y-109727841D01*
X168946661Y-109737163D01*
X168965181Y-109744286D01*
X168983284Y-109752313D01*
X169002975Y-109758821D01*
X169060399Y-109780906D01*
X169080054Y-109784296D01*
X169553779Y-109940867D01*
X169562846Y-109945713D01*
X169630941Y-109966369D01*
X169659732Y-109975885D01*
X169669677Y-109978120D01*
X169718454Y-109992916D01*
X169748841Y-109995909D01*
X169778627Y-110002602D01*
X169829569Y-110003860D01*
X169839727Y-110004860D01*
X169870095Y-110004860D01*
X169941187Y-110006615D01*
X169951309Y-110004860D01*
X170645054Y-110004860D01*
X170690857Y-110008788D01*
X170766445Y-110000378D01*
X170842206Y-109992916D01*
X170847246Y-109991387D01*
X170852469Y-109990806D01*
X170924927Y-109967823D01*
X170997814Y-109945713D01*
X171038367Y-109924037D01*
X171694152Y-109642645D01*
X171759369Y-109616721D01*
X171802938Y-109588504D01*
X171848396Y-109563463D01*
X171902063Y-109518273D01*
X172359452Y-109153755D01*
X172391059Y-109133640D01*
X172422892Y-109103196D01*
X172425459Y-109101150D01*
X172452158Y-109075207D01*
X172479126Y-109049415D01*
X172481270Y-109046919D01*
X172512854Y-109016228D01*
X172534110Y-108985383D01*
X173056780Y-108376705D01*
X173173636Y-108580834D01*
X173206321Y-108641982D01*
X173239794Y-108682769D01*
X173270369Y-108725769D01*
X173320795Y-108773347D01*
X173760169Y-109212721D01*
X173766300Y-109221408D01*
X173817612Y-109270164D01*
X173838819Y-109291371D01*
X173846977Y-109298066D01*
X173884181Y-109333417D01*
X173909691Y-109349535D01*
X173933017Y-109368679D01*
X173978277Y-109392871D01*
X173987200Y-109398509D01*
X174014003Y-109411967D01*
X174076426Y-109445333D01*
X174086602Y-109448420D01*
X174570585Y-109691433D01*
X174586885Y-109702916D01*
X174643096Y-109727841D01*
X174661661Y-109737163D01*
X174680181Y-109744286D01*
X174698284Y-109752313D01*
X174717975Y-109758821D01*
X174775399Y-109780906D01*
X174795054Y-109784296D01*
X175268779Y-109940867D01*
X175277846Y-109945713D01*
X175345941Y-109966369D01*
X175374732Y-109975885D01*
X175384677Y-109978120D01*
X175433454Y-109992916D01*
X175463841Y-109995909D01*
X175493627Y-110002602D01*
X175544569Y-110003860D01*
X175554727Y-110004860D01*
X175585095Y-110004860D01*
X175656187Y-110006615D01*
X175666309Y-110004860D01*
X176360054Y-110004860D01*
X176405857Y-110008788D01*
X176481445Y-110000378D01*
X176557206Y-109992916D01*
X176562246Y-109991387D01*
X176567469Y-109990806D01*
X176639927Y-109967823D01*
X176712814Y-109945713D01*
X176753367Y-109924037D01*
X177409152Y-109642645D01*
X177474369Y-109616721D01*
X177517938Y-109588504D01*
X177563396Y-109563463D01*
X177617063Y-109518273D01*
X178074452Y-109153755D01*
X178106059Y-109133640D01*
X178137892Y-109103196D01*
X178140459Y-109101150D01*
X178167158Y-109075207D01*
X178194126Y-109049415D01*
X178196270Y-109046919D01*
X178227854Y-109016228D01*
X178249110Y-108985383D01*
X178816068Y-108325129D01*
X178863828Y-108272148D01*
X178889782Y-108228581D01*
X178918888Y-108187055D01*
X178931297Y-108158890D01*
X178947049Y-108132448D01*
X178964002Y-108084661D01*
X178984451Y-108038248D01*
X178999931Y-107968579D01*
X179190517Y-107198904D01*
X179207916Y-107141546D01*
X179214009Y-107079683D01*
X179222962Y-107018185D01*
X179219860Y-106958344D01*
X179219860Y-106421208D01*
X179223854Y-106381031D01*
X179219860Y-106340101D01*
X179219860Y-106339727D01*
X179215894Y-106299462D01*
X179212019Y-106259748D01*
X179211947Y-106259386D01*
X179207916Y-106218454D01*
X179196194Y-106179811D01*
X179106994Y-105729239D01*
X179094777Y-105658773D01*
X179076578Y-105611576D01*
X179061940Y-105563162D01*
X179028287Y-105500065D01*
X178844531Y-105134879D01*
X178823723Y-105085520D01*
X178785274Y-105028751D01*
X178748639Y-104970880D01*
X178711730Y-104932102D01*
X178252873Y-104380078D01*
X178227854Y-104343772D01*
X178171958Y-104289458D01*
X178116456Y-104234647D01*
X178079639Y-104210379D01*
X177609993Y-103836092D01*
X177548110Y-103786288D01*
X177510232Y-103766505D01*
X177474369Y-103743279D01*
X177400619Y-103713963D01*
X176933176Y-103525555D01*
X176887818Y-103503217D01*
X176818715Y-103484740D01*
X176750084Y-103464635D01*
X176699727Y-103460161D01*
X176181711Y-103374918D01*
X176155886Y-103367084D01*
X176101635Y-103361741D01*
X176088084Y-103359511D01*
X176061338Y-103357772D01*
X176034613Y-103355140D01*
X176020854Y-103355140D01*
X175966482Y-103351605D01*
X175944379Y-103354527D01*
X175922016Y-103351586D01*
X175867922Y-103355140D01*
X175854447Y-103355140D01*
X175827447Y-103357799D01*
X175800418Y-103359575D01*
X175787144Y-103361769D01*
X175733174Y-103367084D01*
X175707081Y-103374999D01*
X175169095Y-103463903D01*
X175137106Y-103468536D01*
X175129096Y-103470513D01*
X175120958Y-103471858D01*
X175089744Y-103480227D01*
X174772567Y-103558518D01*
X174769706Y-103558668D01*
X174693628Y-103578003D01*
X174657044Y-103587033D01*
X174654365Y-103587981D01*
X174612106Y-103598721D01*
X174577895Y-103615046D01*
X174542167Y-103627691D01*
X174504699Y-103649974D01*
X174502127Y-103651201D01*
X174469808Y-103670724D01*
X174402405Y-103710809D01*
X174400276Y-103712725D01*
X173985613Y-103963208D01*
X173933017Y-103991321D01*
X173884729Y-104030951D01*
X173834696Y-104068325D01*
X173794805Y-104112643D01*
X173327643Y-104579805D01*
X173283325Y-104619696D01*
X173245947Y-104669735D01*
X173206321Y-104718018D01*
X173178212Y-104770606D01*
X173045713Y-104989953D01*
X173033639Y-104970880D01*
X172996730Y-104932102D01*
X172537873Y-104380078D01*
X172512854Y-104343772D01*
X172456958Y-104289458D01*
X172401456Y-104234647D01*
X172364639Y-104210379D01*
X171894993Y-103836092D01*
X171833110Y-103786288D01*
X171795232Y-103766505D01*
X171759369Y-103743279D01*
X171685619Y-103713963D01*
X171218176Y-103525555D01*
X171172818Y-103503217D01*
X171103715Y-103484740D01*
X171035084Y-103464635D01*
X170984727Y-103460161D01*
X170466711Y-103374918D01*
X170440886Y-103367084D01*
X170386635Y-103361741D01*
X170373084Y-103359511D01*
X170346338Y-103357772D01*
X170319613Y-103355140D01*
X170305854Y-103355140D01*
X170251482Y-103351605D01*
X170229379Y-103354527D01*
X170207016Y-103351586D01*
X170152922Y-103355140D01*
X170139447Y-103355140D01*
X170112447Y-103357799D01*
X170085418Y-103359575D01*
X170072144Y-103361769D01*
X170018174Y-103367084D01*
X169992081Y-103374999D01*
X169454095Y-103463903D01*
X169422106Y-103468536D01*
X169414096Y-103470513D01*
X169405958Y-103471858D01*
X169374744Y-103480227D01*
X169057567Y-103558518D01*
X169054706Y-103558668D01*
X168978628Y-103578003D01*
X168942044Y-103587033D01*
X168939365Y-103587981D01*
X168897106Y-103598721D01*
X168862895Y-103615046D01*
X168827167Y-103627691D01*
X168789699Y-103649974D01*
X168787127Y-103651201D01*
X168754808Y-103670724D01*
X168687405Y-103710809D01*
X168685276Y-103712725D01*
X168270613Y-103963208D01*
X168218017Y-103991321D01*
X168169729Y-104030951D01*
X168119696Y-104068325D01*
X168079805Y-104112643D01*
X167612643Y-104579805D01*
X167568325Y-104619696D01*
X167530947Y-104669735D01*
X167491321Y-104718018D01*
X167463212Y-104770606D01*
X167186914Y-105228007D01*
X167156571Y-105271193D01*
X167128563Y-105334569D01*
X167098721Y-105397108D01*
X167085719Y-105448266D01*
X166918886Y-105955182D01*
X166914287Y-105963786D01*
X166893482Y-106032370D01*
X166883838Y-106061674D01*
X166881728Y-106071118D01*
X166867084Y-106119394D01*
X166864040Y-106150301D01*
X166857271Y-106180603D01*
X166856090Y-106231026D01*
X166855140Y-106240667D01*
X166855140Y-106271552D01*
X166853462Y-106343167D01*
X166855140Y-106352773D01*
X166855140Y-106826618D01*
X166851586Y-106853644D01*
X165606032Y-106853644D01*
X165587226Y-106759102D01*
X165509205Y-106570744D01*
X165395937Y-106401226D01*
X165352000Y-106357289D01*
X165352000Y-106240711D01*
X165395937Y-106196774D01*
X165509205Y-106027256D01*
X165587226Y-105838898D01*
X165627000Y-105638939D01*
X165627000Y-105435061D01*
X165587226Y-105235102D01*
X165509205Y-105046744D01*
X165395937Y-104877226D01*
X165251774Y-104733063D01*
X165082256Y-104619795D01*
X164893898Y-104541774D01*
X164693939Y-104502000D01*
X164490061Y-104502000D01*
X164290102Y-104541774D01*
X164101744Y-104619795D01*
X163932226Y-104733063D01*
X163797575Y-104867714D01*
X163623898Y-104795774D01*
X163423939Y-104756000D01*
X163220061Y-104756000D01*
X163020102Y-104795774D01*
X162831744Y-104873795D01*
X162662226Y-104987063D01*
X162518063Y-105131226D01*
X162404795Y-105300744D01*
X162326774Y-105489102D01*
X162326401Y-105490980D01*
X162276279Y-105481010D01*
X162072401Y-105481010D01*
X161872442Y-105520784D01*
X161684084Y-105598805D01*
X161514566Y-105712073D01*
X161370403Y-105856236D01*
X161257135Y-106025754D01*
X161179114Y-106214112D01*
X161139340Y-106414071D01*
X161139340Y-106617949D01*
X161179114Y-106817908D01*
X161257135Y-107006266D01*
X161354172Y-107151493D01*
X161338320Y-107162085D01*
X161194157Y-107306248D01*
X161080889Y-107475766D01*
X161002868Y-107664124D01*
X160963094Y-107864083D01*
X154507667Y-107864083D01*
X154507667Y-106087118D01*
X154541256Y-106073205D01*
X154710774Y-105959937D01*
X154854937Y-105815774D01*
X154968205Y-105646256D01*
X155046226Y-105457898D01*
X155086000Y-105257939D01*
X155086000Y-105054061D01*
X155046226Y-104854102D01*
X154968205Y-104665744D01*
X154854937Y-104496226D01*
X154710774Y-104352063D01*
X154541256Y-104238795D01*
X154352898Y-104160774D01*
X154152939Y-104121000D01*
X153949061Y-104121000D01*
X153749102Y-104160774D01*
X153560744Y-104238795D01*
X153391226Y-104352063D01*
X153247063Y-104496226D01*
X153133795Y-104665744D01*
X153055774Y-104854102D01*
X153016000Y-105054061D01*
X153016000Y-105253198D01*
X152998664Y-105310348D01*
X152987667Y-105422001D01*
X152987667Y-105422011D01*
X152983991Y-105459333D01*
X151110609Y-105459333D01*
X151214371Y-105304043D01*
X151318775Y-105051989D01*
X151372000Y-104784411D01*
X151372000Y-104511589D01*
X151318775Y-104244011D01*
X151214371Y-103991957D01*
X151062799Y-103765114D01*
X150869886Y-103572201D01*
X150643043Y-103420629D01*
X150390989Y-103316225D01*
X150123411Y-103263000D01*
X149850589Y-103263000D01*
X149583011Y-103316225D01*
X149330957Y-103420629D01*
X149104114Y-103572201D01*
X148911201Y-103765114D01*
X148759629Y-103991957D01*
X148718489Y-104091279D01*
X148703277Y-104049168D01*
X148642860Y-103936137D01*
X148403993Y-103870612D01*
X147626605Y-104648000D01*
X147640748Y-104662143D01*
X147461143Y-104841748D01*
X147447000Y-104827605D01*
X147432858Y-104841748D01*
X147253253Y-104662143D01*
X147267395Y-104648000D01*
X146490007Y-103870612D01*
X146251140Y-103936137D01*
X146135240Y-104183116D01*
X146069750Y-104447960D01*
X146057188Y-104720492D01*
X146098035Y-104990238D01*
X146190723Y-105246832D01*
X146251140Y-105359863D01*
X146490005Y-105425387D01*
X146373549Y-105541843D01*
X146400451Y-105568745D01*
X145410991Y-106558206D01*
X145381987Y-106582009D01*
X145333448Y-106641155D01*
X145287014Y-106697734D01*
X145250736Y-106765605D01*
X145216442Y-106829764D01*
X145172985Y-106973025D01*
X145161988Y-107084678D01*
X145161988Y-107084688D01*
X145158312Y-107122010D01*
X136906000Y-107122010D01*
X136906000Y-103691007D01*
X146669612Y-103691007D01*
X147447000Y-104468395D01*
X148224388Y-103691007D01*
X148158863Y-103452140D01*
X147911884Y-103336240D01*
X147647040Y-103270750D01*
X147374508Y-103258188D01*
X147104762Y-103299035D01*
X146848168Y-103391723D01*
X146735137Y-103452140D01*
X146669612Y-103691007D01*
X136906000Y-103691007D01*
X136906000Y-101615685D01*
X136908383Y-101615450D01*
X137032793Y-101577710D01*
X137147450Y-101516425D01*
X137247948Y-101433948D01*
X137330425Y-101333450D01*
X137391710Y-101218793D01*
X137429450Y-101094383D01*
X137442193Y-100965000D01*
X137439000Y-100932581D01*
X137439000Y-96291000D01*
X189078000Y-96291000D01*
X189078001Y-97122572D01*
%TA.AperFunction,Conductor*%
D15*
G36*
X189078001Y-97122572D02*
G01*
X189078000Y-97122582D01*
X189078001Y-116680581D01*
X189078000Y-117577000D01*
X137439000Y-117577000D01*
X137439000Y-112935419D01*
X137442193Y-112903000D01*
X137429450Y-112773617D01*
X137391710Y-112649207D01*
X137330425Y-112534550D01*
X137247948Y-112434052D01*
X137147450Y-112351575D01*
X137032793Y-112290290D01*
X136908383Y-112252550D01*
X136906000Y-112252315D01*
X136906000Y-107122010D01*
X145158312Y-107122010D01*
X145161988Y-107159333D01*
X145161989Y-111040909D01*
X145158312Y-111078241D01*
X145161989Y-111115574D01*
X145172986Y-111227227D01*
X145181338Y-111254761D01*
X145181339Y-112249006D01*
X145177662Y-112286338D01*
X145192336Y-112435323D01*
X145235792Y-112578584D01*
X145306364Y-112710614D01*
X145344229Y-112756752D01*
X145401338Y-112826339D01*
X145430336Y-112850137D01*
X146140200Y-113560001D01*
X146163998Y-113589000D01*
X146192996Y-113612798D01*
X146279723Y-113683973D01*
X146411752Y-113754545D01*
X146555013Y-113798002D01*
X146703999Y-113812676D01*
X146741332Y-113808999D01*
X147644679Y-113808999D01*
X147682001Y-113812675D01*
X147719323Y-113808999D01*
X147719334Y-113808999D01*
X147830987Y-113798002D01*
X147974248Y-113754545D01*
X148106226Y-113684000D01*
X148183939Y-113684000D01*
X148383898Y-113644226D01*
X148572256Y-113566205D01*
X148741774Y-113452937D01*
X148885937Y-113308774D01*
X148999205Y-113139256D01*
X149077226Y-112950898D01*
X149117000Y-112750939D01*
X149117000Y-112547061D01*
X149077226Y-112347102D01*
X148999205Y-112158744D01*
X148885937Y-111989226D01*
X148741774Y-111845063D01*
X148572256Y-111731795D01*
X148383898Y-111653774D01*
X148183939Y-111614000D01*
X147980061Y-111614000D01*
X147911307Y-111627676D01*
X147897572Y-111613941D01*
X147887246Y-111509099D01*
X147843789Y-111365838D01*
X147773217Y-111233809D01*
X147678244Y-111118084D01*
X147654756Y-111098808D01*
X147850989Y-111059775D01*
X148103043Y-110955371D01*
X148329886Y-110803799D01*
X148522799Y-110610886D01*
X148674371Y-110384043D01*
X148717000Y-110281127D01*
X148759629Y-110384043D01*
X148911201Y-110610886D01*
X149104114Y-110803799D01*
X149227000Y-110885909D01*
X149227001Y-112436660D01*
X149223324Y-112473992D01*
X149227001Y-112511325D01*
X149237998Y-112622978D01*
X149245892Y-112649001D01*
X149281454Y-112766238D01*
X149352026Y-112898268D01*
X149395219Y-112950898D01*
X149447000Y-113013993D01*
X149475998Y-113037791D01*
X149729987Y-113291780D01*
X149729987Y-113353918D01*
X149769761Y-113553877D01*
X149847782Y-113742235D01*
X149961050Y-113911753D01*
X150105213Y-114055916D01*
X150274731Y-114169184D01*
X150463089Y-114247205D01*
X150663048Y-114286979D01*
X150866926Y-114286979D01*
X151066885Y-114247205D01*
X151237698Y-114176452D01*
X151274744Y-114201205D01*
X151463102Y-114279226D01*
X151663061Y-114319000D01*
X151866939Y-114319000D01*
X152066898Y-114279226D01*
X152255256Y-114201205D01*
X152424774Y-114087937D01*
X152568937Y-113943774D01*
X152682205Y-113774256D01*
X152760226Y-113585898D01*
X152800000Y-113385939D01*
X152800000Y-113182061D01*
X152760226Y-112982102D01*
X152682205Y-112793744D01*
X152568937Y-112624226D01*
X152525000Y-112580289D01*
X152525000Y-109003325D01*
X152528676Y-108966000D01*
X152525000Y-108928675D01*
X152525000Y-108928667D01*
X152514003Y-108817014D01*
X152470546Y-108673753D01*
X152399974Y-108541724D01*
X152305001Y-108425999D01*
X152276004Y-108402202D01*
X151343167Y-107469365D01*
X151372000Y-107324411D01*
X151372000Y-107051589D01*
X151318775Y-106784011D01*
X151214371Y-106531957D01*
X151062799Y-106305114D01*
X150869886Y-106112201D01*
X150643043Y-105960629D01*
X150540127Y-105918000D01*
X150643043Y-105875371D01*
X150869886Y-105723799D01*
X151062799Y-105530886D01*
X151110609Y-105459333D01*
X152983991Y-105459333D01*
X152987667Y-105496656D01*
X152987668Y-108371335D01*
X152983991Y-108408667D01*
X152987668Y-108446000D01*
X152998665Y-108557653D01*
X153003509Y-108573621D01*
X153042121Y-108700913D01*
X153112693Y-108832943D01*
X153166064Y-108897975D01*
X153207667Y-108948668D01*
X153236665Y-108972466D01*
X155011201Y-110747003D01*
X155034999Y-110776001D01*
X155063997Y-110799799D01*
X155150723Y-110870974D01*
X155222018Y-110909082D01*
X155282753Y-110941546D01*
X155426014Y-110985003D01*
X155537667Y-110996000D01*
X155537676Y-110996000D01*
X155574999Y-110999676D01*
X155612322Y-110996000D01*
X159824289Y-110996000D01*
X159868226Y-111039937D01*
X160037744Y-111153205D01*
X160226102Y-111231226D01*
X160426061Y-111271000D01*
X160629939Y-111271000D01*
X160829898Y-111231226D01*
X161018256Y-111153205D01*
X161187774Y-111039937D01*
X161331937Y-110895774D01*
X161445205Y-110726256D01*
X161523226Y-110537898D01*
X161563000Y-110337939D01*
X161563000Y-110134061D01*
X161523226Y-109934102D01*
X161445205Y-109745744D01*
X161331937Y-109576226D01*
X161187774Y-109432063D01*
X161018256Y-109318795D01*
X160829898Y-109240774D01*
X160629939Y-109201000D01*
X160426061Y-109201000D01*
X160226102Y-109240774D01*
X160037744Y-109318795D01*
X159868226Y-109432063D01*
X159824289Y-109476000D01*
X155889802Y-109476000D01*
X154507667Y-108093866D01*
X154507667Y-107864083D01*
X160963094Y-107864083D01*
X160963094Y-108067961D01*
X161002868Y-108267920D01*
X161080889Y-108456278D01*
X161194157Y-108625796D01*
X161338320Y-108769959D01*
X161507838Y-108883227D01*
X161696196Y-108961248D01*
X161896155Y-109001022D01*
X162100033Y-109001022D01*
X162299992Y-108961248D01*
X162488350Y-108883227D01*
X162657868Y-108769959D01*
X162802031Y-108625796D01*
X162915299Y-108456278D01*
X162985964Y-108285678D01*
X163133892Y-108346952D01*
X163333851Y-108386726D01*
X163537729Y-108386726D01*
X163737688Y-108346952D01*
X163926046Y-108268931D01*
X164095564Y-108155663D01*
X164222856Y-108028371D01*
X164290102Y-108056226D01*
X164490061Y-108096000D01*
X164693939Y-108096000D01*
X164893898Y-108056226D01*
X165082256Y-107978205D01*
X165251774Y-107864937D01*
X165395937Y-107720774D01*
X165509205Y-107551256D01*
X165587226Y-107362898D01*
X165627000Y-107162939D01*
X165627000Y-106959061D01*
X165606032Y-106853644D01*
X166851586Y-106853644D01*
X166855140Y-106907738D01*
X166855140Y-106921212D01*
X166857799Y-106948212D01*
X166859575Y-106975241D01*
X166861769Y-106988515D01*
X166867084Y-107042485D01*
X166874999Y-107068578D01*
X166956166Y-107559745D01*
X166956910Y-107585349D01*
X166969395Y-107639799D01*
X166971858Y-107654702D01*
X166978452Y-107679296D01*
X166993253Y-107743846D01*
X166999478Y-107757719D01*
X167003415Y-107772405D01*
X167032717Y-107831801D01*
X167043138Y-107855027D01*
X167050640Y-107868132D01*
X167075357Y-107918234D01*
X167090955Y-107938555D01*
X167458636Y-108580834D01*
X167491321Y-108641982D01*
X167524794Y-108682769D01*
X167555369Y-108725769D01*
X167605795Y-108773347D01*
X168045169Y-109212721D01*
X168051300Y-109221408D01*
X168102612Y-109270164D01*
X168123819Y-109291371D01*
X168131977Y-109298066D01*
X168169181Y-109333417D01*
X168194691Y-109349535D01*
X168218017Y-109368679D01*
X168263277Y-109392871D01*
X168272200Y-109398509D01*
X168299003Y-109411967D01*
X168361426Y-109445333D01*
X168371602Y-109448420D01*
X168855585Y-109691433D01*
X168871885Y-109702916D01*
X168928096Y-109727841D01*
X168946661Y-109737163D01*
X168965181Y-109744286D01*
X168983284Y-109752313D01*
X169002975Y-109758821D01*
X169060399Y-109780906D01*
X169080054Y-109784296D01*
X169553779Y-109940867D01*
X169562846Y-109945713D01*
X169630941Y-109966369D01*
X169659732Y-109975885D01*
X169669677Y-109978120D01*
X169718454Y-109992916D01*
X169748841Y-109995909D01*
X169778627Y-110002602D01*
X169829569Y-110003860D01*
X169839727Y-110004860D01*
X169870095Y-110004860D01*
X169941187Y-110006615D01*
X169951309Y-110004860D01*
X170645054Y-110004860D01*
X170690857Y-110008788D01*
X170766445Y-110000378D01*
X170842206Y-109992916D01*
X170847246Y-109991387D01*
X170852469Y-109990806D01*
X170924927Y-109967823D01*
X170997814Y-109945713D01*
X171038367Y-109924037D01*
X171694152Y-109642645D01*
X171759369Y-109616721D01*
X171802938Y-109588504D01*
X171848396Y-109563463D01*
X171902063Y-109518273D01*
X172359452Y-109153755D01*
X172391059Y-109133640D01*
X172422892Y-109103196D01*
X172425459Y-109101150D01*
X172452158Y-109075207D01*
X172479126Y-109049415D01*
X172481270Y-109046919D01*
X172512854Y-109016228D01*
X172534110Y-108985383D01*
X173056780Y-108376705D01*
X173173636Y-108580834D01*
X173206321Y-108641982D01*
X173239794Y-108682769D01*
X173270369Y-108725769D01*
X173320795Y-108773347D01*
X173760169Y-109212721D01*
X173766300Y-109221408D01*
X173817612Y-109270164D01*
X173838819Y-109291371D01*
X173846977Y-109298066D01*
X173884181Y-109333417D01*
X173909691Y-109349535D01*
X173933017Y-109368679D01*
X173978277Y-109392871D01*
X173987200Y-109398509D01*
X174014003Y-109411967D01*
X174076426Y-109445333D01*
X174086602Y-109448420D01*
X174570585Y-109691433D01*
X174586885Y-109702916D01*
X174643096Y-109727841D01*
X174661661Y-109737163D01*
X174680181Y-109744286D01*
X174698284Y-109752313D01*
X174717975Y-109758821D01*
X174775399Y-109780906D01*
X174795054Y-109784296D01*
X175268779Y-109940867D01*
X175277846Y-109945713D01*
X175345941Y-109966369D01*
X175374732Y-109975885D01*
X175384677Y-109978120D01*
X175433454Y-109992916D01*
X175463841Y-109995909D01*
X175493627Y-110002602D01*
X175544569Y-110003860D01*
X175554727Y-110004860D01*
X175585095Y-110004860D01*
X175656187Y-110006615D01*
X175666309Y-110004860D01*
X176360054Y-110004860D01*
X176405857Y-110008788D01*
X176481445Y-110000378D01*
X176557206Y-109992916D01*
X176562246Y-109991387D01*
X176567469Y-109990806D01*
X176639927Y-109967823D01*
X176712814Y-109945713D01*
X176753367Y-109924037D01*
X177409152Y-109642645D01*
X177474369Y-109616721D01*
X177517938Y-109588504D01*
X177563396Y-109563463D01*
X177617063Y-109518273D01*
X178074452Y-109153755D01*
X178106059Y-109133640D01*
X178137892Y-109103196D01*
X178140459Y-109101150D01*
X178167158Y-109075207D01*
X178194126Y-109049415D01*
X178196270Y-109046919D01*
X178227854Y-109016228D01*
X178249110Y-108985383D01*
X178816068Y-108325129D01*
X178863828Y-108272148D01*
X178889782Y-108228581D01*
X178918888Y-108187055D01*
X178931297Y-108158890D01*
X178947049Y-108132448D01*
X178964002Y-108084661D01*
X178984451Y-108038248D01*
X178999931Y-107968579D01*
X179190517Y-107198904D01*
X179207916Y-107141546D01*
X179214009Y-107079683D01*
X179222962Y-107018185D01*
X179219860Y-106958344D01*
X179219860Y-106421208D01*
X179223854Y-106381031D01*
X179219860Y-106340101D01*
X179219860Y-106339727D01*
X179215894Y-106299462D01*
X179212019Y-106259748D01*
X179211947Y-106259386D01*
X179207916Y-106218454D01*
X179196194Y-106179811D01*
X179106994Y-105729239D01*
X179094777Y-105658773D01*
X179076578Y-105611576D01*
X179061940Y-105563162D01*
X179028287Y-105500065D01*
X178844531Y-105134879D01*
X178823723Y-105085520D01*
X178785274Y-105028751D01*
X178748639Y-104970880D01*
X178711730Y-104932102D01*
X178252873Y-104380078D01*
X178227854Y-104343772D01*
X178171958Y-104289458D01*
X178116456Y-104234647D01*
X178079639Y-104210379D01*
X177609993Y-103836092D01*
X177548110Y-103786288D01*
X177510232Y-103766505D01*
X177474369Y-103743279D01*
X177400619Y-103713963D01*
X176933176Y-103525555D01*
X176887818Y-103503217D01*
X176818715Y-103484740D01*
X176750084Y-103464635D01*
X176699727Y-103460161D01*
X176181711Y-103374918D01*
X176155886Y-103367084D01*
X176101635Y-103361741D01*
X176088084Y-103359511D01*
X176061338Y-103357772D01*
X176034613Y-103355140D01*
X176020854Y-103355140D01*
X175966482Y-103351605D01*
X175944379Y-103354527D01*
X175922016Y-103351586D01*
X175867922Y-103355140D01*
X175854447Y-103355140D01*
X175827447Y-103357799D01*
X175800418Y-103359575D01*
X175787144Y-103361769D01*
X175733174Y-103367084D01*
X175707081Y-103374999D01*
X175169095Y-103463903D01*
X175137106Y-103468536D01*
X175129096Y-103470513D01*
X175120958Y-103471858D01*
X175089744Y-103480227D01*
X174772567Y-103558518D01*
X174769706Y-103558668D01*
X174693628Y-103578003D01*
X174657044Y-103587033D01*
X174654365Y-103587981D01*
X174612106Y-103598721D01*
X174577895Y-103615046D01*
X174542167Y-103627691D01*
X174504699Y-103649974D01*
X174502127Y-103651201D01*
X174469808Y-103670724D01*
X174402405Y-103710809D01*
X174400276Y-103712725D01*
X173985613Y-103963208D01*
X173933017Y-103991321D01*
X173884729Y-104030951D01*
X173834696Y-104068325D01*
X173794805Y-104112643D01*
X173327643Y-104579805D01*
X173283325Y-104619696D01*
X173245947Y-104669735D01*
X173206321Y-104718018D01*
X173178212Y-104770606D01*
X173045713Y-104989953D01*
X173033639Y-104970880D01*
X172996730Y-104932102D01*
X172537873Y-104380078D01*
X172512854Y-104343772D01*
X172456958Y-104289458D01*
X172401456Y-104234647D01*
X172364639Y-104210379D01*
X171894993Y-103836092D01*
X171833110Y-103786288D01*
X171795232Y-103766505D01*
X171759369Y-103743279D01*
X171685619Y-103713963D01*
X171218176Y-103525555D01*
X171172818Y-103503217D01*
X171103715Y-103484740D01*
X171035084Y-103464635D01*
X170984727Y-103460161D01*
X170466711Y-103374918D01*
X170440886Y-103367084D01*
X170386635Y-103361741D01*
X170373084Y-103359511D01*
X170346338Y-103357772D01*
X170319613Y-103355140D01*
X170305854Y-103355140D01*
X170251482Y-103351605D01*
X170229379Y-103354527D01*
X170207016Y-103351586D01*
X170152922Y-103355140D01*
X170139447Y-103355140D01*
X170112447Y-103357799D01*
X170085418Y-103359575D01*
X170072144Y-103361769D01*
X170018174Y-103367084D01*
X169992081Y-103374999D01*
X169454095Y-103463903D01*
X169422106Y-103468536D01*
X169414096Y-103470513D01*
X169405958Y-103471858D01*
X169374744Y-103480227D01*
X169057567Y-103558518D01*
X169054706Y-103558668D01*
X168978628Y-103578003D01*
X168942044Y-103587033D01*
X168939365Y-103587981D01*
X168897106Y-103598721D01*
X168862895Y-103615046D01*
X168827167Y-103627691D01*
X168789699Y-103649974D01*
X168787127Y-103651201D01*
X168754808Y-103670724D01*
X168687405Y-103710809D01*
X168685276Y-103712725D01*
X168270613Y-103963208D01*
X168218017Y-103991321D01*
X168169729Y-104030951D01*
X168119696Y-104068325D01*
X168079805Y-104112643D01*
X167612643Y-104579805D01*
X167568325Y-104619696D01*
X167530947Y-104669735D01*
X167491321Y-104718018D01*
X167463212Y-104770606D01*
X167186914Y-105228007D01*
X167156571Y-105271193D01*
X167128563Y-105334569D01*
X167098721Y-105397108D01*
X167085719Y-105448266D01*
X166918886Y-105955182D01*
X166914287Y-105963786D01*
X166893482Y-106032370D01*
X166883838Y-106061674D01*
X166881728Y-106071118D01*
X166867084Y-106119394D01*
X166864040Y-106150301D01*
X166857271Y-106180603D01*
X166856090Y-106231026D01*
X166855140Y-106240667D01*
X166855140Y-106271552D01*
X166853462Y-106343167D01*
X166855140Y-106352773D01*
X166855140Y-106826618D01*
X166851586Y-106853644D01*
X165606032Y-106853644D01*
X165587226Y-106759102D01*
X165509205Y-106570744D01*
X165395937Y-106401226D01*
X165352000Y-106357289D01*
X165352000Y-106240711D01*
X165395937Y-106196774D01*
X165509205Y-106027256D01*
X165587226Y-105838898D01*
X165627000Y-105638939D01*
X165627000Y-105435061D01*
X165587226Y-105235102D01*
X165509205Y-105046744D01*
X165395937Y-104877226D01*
X165251774Y-104733063D01*
X165082256Y-104619795D01*
X164893898Y-104541774D01*
X164693939Y-104502000D01*
X164490061Y-104502000D01*
X164290102Y-104541774D01*
X164101744Y-104619795D01*
X163932226Y-104733063D01*
X163797575Y-104867714D01*
X163623898Y-104795774D01*
X163423939Y-104756000D01*
X163220061Y-104756000D01*
X163020102Y-104795774D01*
X162831744Y-104873795D01*
X162662226Y-104987063D01*
X162518063Y-105131226D01*
X162404795Y-105300744D01*
X162326774Y-105489102D01*
X162326401Y-105490980D01*
X162276279Y-105481010D01*
X162072401Y-105481010D01*
X161872442Y-105520784D01*
X161684084Y-105598805D01*
X161514566Y-105712073D01*
X161370403Y-105856236D01*
X161257135Y-106025754D01*
X161179114Y-106214112D01*
X161139340Y-106414071D01*
X161139340Y-106617949D01*
X161179114Y-106817908D01*
X161257135Y-107006266D01*
X161354172Y-107151493D01*
X161338320Y-107162085D01*
X161194157Y-107306248D01*
X161080889Y-107475766D01*
X161002868Y-107664124D01*
X160963094Y-107864083D01*
X154507667Y-107864083D01*
X154507667Y-106087118D01*
X154541256Y-106073205D01*
X154710774Y-105959937D01*
X154854937Y-105815774D01*
X154968205Y-105646256D01*
X155046226Y-105457898D01*
X155086000Y-105257939D01*
X155086000Y-105054061D01*
X155046226Y-104854102D01*
X154968205Y-104665744D01*
X154854937Y-104496226D01*
X154710774Y-104352063D01*
X154541256Y-104238795D01*
X154352898Y-104160774D01*
X154152939Y-104121000D01*
X153949061Y-104121000D01*
X153749102Y-104160774D01*
X153560744Y-104238795D01*
X153391226Y-104352063D01*
X153247063Y-104496226D01*
X153133795Y-104665744D01*
X153055774Y-104854102D01*
X153016000Y-105054061D01*
X153016000Y-105253198D01*
X152998664Y-105310348D01*
X152987667Y-105422001D01*
X152987667Y-105422011D01*
X152983991Y-105459333D01*
X151110609Y-105459333D01*
X151214371Y-105304043D01*
X151318775Y-105051989D01*
X151372000Y-104784411D01*
X151372000Y-104511589D01*
X151318775Y-104244011D01*
X151214371Y-103991957D01*
X151062799Y-103765114D01*
X150869886Y-103572201D01*
X150643043Y-103420629D01*
X150390989Y-103316225D01*
X150123411Y-103263000D01*
X149850589Y-103263000D01*
X149583011Y-103316225D01*
X149330957Y-103420629D01*
X149104114Y-103572201D01*
X148911201Y-103765114D01*
X148759629Y-103991957D01*
X148718489Y-104091279D01*
X148703277Y-104049168D01*
X148642860Y-103936137D01*
X148403993Y-103870612D01*
X147626605Y-104648000D01*
X147640748Y-104662143D01*
X147461143Y-104841748D01*
X147447000Y-104827605D01*
X147432858Y-104841748D01*
X147253253Y-104662143D01*
X147267395Y-104648000D01*
X146490007Y-103870612D01*
X146251140Y-103936137D01*
X146135240Y-104183116D01*
X146069750Y-104447960D01*
X146057188Y-104720492D01*
X146098035Y-104990238D01*
X146190723Y-105246832D01*
X146251140Y-105359863D01*
X146490005Y-105425387D01*
X146373549Y-105541843D01*
X146400451Y-105568745D01*
X145410991Y-106558206D01*
X145381987Y-106582009D01*
X145333448Y-106641155D01*
X145287014Y-106697734D01*
X145250736Y-106765605D01*
X145216442Y-106829764D01*
X145172985Y-106973025D01*
X145161988Y-107084678D01*
X145161988Y-107084688D01*
X145158312Y-107122010D01*
X136906000Y-107122010D01*
X136906000Y-103691007D01*
X146669612Y-103691007D01*
X147447000Y-104468395D01*
X148224388Y-103691007D01*
X148158863Y-103452140D01*
X147911884Y-103336240D01*
X147647040Y-103270750D01*
X147374508Y-103258188D01*
X147104762Y-103299035D01*
X146848168Y-103391723D01*
X146735137Y-103452140D01*
X146669612Y-103691007D01*
X136906000Y-103691007D01*
X136906000Y-101615685D01*
X136908383Y-101615450D01*
X137032793Y-101577710D01*
X137147450Y-101516425D01*
X137247948Y-101433948D01*
X137330425Y-101333450D01*
X137391710Y-101218793D01*
X137429450Y-101094383D01*
X137442193Y-100965000D01*
X137439000Y-100932581D01*
X137439000Y-96291000D01*
X189078000Y-96291000D01*
X189078001Y-97122572D01*
G37*
%TD.AperFunction*%
%TD*%
M02*
